INDEX VERSION 1.130+E:\Facultad\Taller Construccion Software\fletea\.metadata\.plugins\org.eclipse.jdt.core
3627084181.index
1156950997.index
1924480154.index
3007654112.index
2636914624.index
2710483392.index
189530877.index
3871750857.index
981050515.index
4005617011.index
4251889439.index
3559484902.index
1756957494.index
379045935.index
197789008.index
3608585563.index
1746087495.index
3145607036.index
1056031855.index
1686655237.index
1885473342.index
2948751228.index
429373997.index
200721323.index
2345840888.index
3530477163.index
2725125150.index
1070617348.index
996045903.index
2816613229.index
53686429.index
3172673502.index
2075892729.index
4203847651.index
3087286056.index
1411640527.index
1251386888.index
872410759.index
3982276604.index
298888003.index
1728008309.index
543409727.index
978228682.index
3865848214.index
3254107129.index
4038604585.index
3449055620.index
3860615120.index
2122965289.index
1083041567.index
913888806.index
803509504.index
2740582024.index
3647967825.index
2781207387.index
206638468.index
2760689279.index
134360950.index
1599748892.index
4062329064.index
2195395220.index
1041092606.index
4052193517.index
1715117084.index
469663922.index
4030841104.index
656214887.index
1114650133.index
308834853.index
2703367774.index
1336974276.index
571909421.index
3374399628.index
1654674800.index
1395620048.index
1666258658.index
397446622.index
2656896584.index
3490284333.index
2513604112.index
532563508.index
4284321976.index
1432368676.index
31377021.index
3918232131.index
132635067.index
3581657793.index
1191139610.index
1364054551.index
