INDEX VERSION 1.130+/Users/macfacha/Desarrollo/zionRecargado/fletea/springMVC/.metadata/.plugins/org.eclipse.jdt.core
2570914150.index
625672599.index
3178334090.index
4279266521.index
2868143286.index
1655990730.index
1901786424.index
2979435446.index
2356508344.index
1044104405.index
1931402068.index
2465022724.index
3157663476.index
3227702110.index
1159679338.index
2340594157.index
2732998263.index
576073405.index
689465454.index
323482914.index
2811118753.index
3747173525.index
3046324005.index
449129285.index
356754508.index
3651786510.index
1539959185.index
3138240632.index
3867322381.index
2763200912.index
3616042024.index
2375142530.index
4119563470.index
242787665.index
527849843.index
1271342938.index
624708564.index
2931294034.index
962881417.index
311610946.index
3500860765.index
502738474.index
1963298834.index
3760999843.index
2203100981.index
1342429364.index
4062169633.index
2987156719.index
2117113611.index
616739193.index
2234685471.index
374471492.index
3358580009.index
2932191785.index
204893112.index
995153890.index
870079401.index
522150148.index
991383958.index
1170311525.index
482552033.index
4234324047.index
